info face="AdLib" size=88 bold=0 italic=0 charset="" unicode=0 stretchH=100 smooth=1 aa=1 padding=0,0,0,0 spacing=2,2
common lineHeight=88 base=85 scaleW=1024 scaleH=512 pages=1 packed=0
page id=0 file="XitRam2-ipadhd.png"
chars count=40
char id=79 x=2 y=2 width=104 height=103 xoffset=-8 yoffset=-8 xadvance=89 page=0 chnl=0 letter="O"
char id=48 x=108 y=2 width=104 height=103 xoffset=-8 yoffset=-8 xadvance=88 page=0 chnl=0 letter="0"
char id=68 x=214 y=2 width=91 height=103 xoffset=-9 yoffset=-8 xadvance=74 page=0 chnl=0 letter="D"
char id=72 x=307 y=2 width=88 height=103 xoffset=-8 yoffset=-8 xadvance=72 page=0 chnl=0 letter="H"
char id=57 x=397 y=2 width=85 height=103 xoffset=-9 yoffset=-8 xadvance=68 page=0 chnl=0 letter="9"
char id=51 x=484 y=2 width=68 height=103 xoffset=-8 yoffset=-8 xadvance=52 page=0 chnl=0 letter="3"
char id=87 x=554 y=2 width=137 height=102 xoffset=-8 yoffset=-7 xadvance=120 page=0 chnl=0 letter="W"
char id=81 x=693 y=2 width=103 height=102 xoffset=-8 yoffset=-7 xadvance=87 page=0 chnl=0 letter="Q"
char id=71 x=798 y=2 width=100 height=102 xoffset=-8 yoffset=-7 xadvance=84 page=0 chnl=0 letter="G"
char id=55 x=900 y=2 width=100 height=102 xoffset=-8 yoffset=-7 xadvance=83 page=0 chnl=0 letter="7"
char id=86 x=2 y=107 width=99 height=102 xoffset=-9 yoffset=-7 xadvance=81 page=0 chnl=0 letter="V"
char id=65 x=103 y=107 width=94 height=102 xoffset=-8 yoffset=-7 xadvance=78 page=0 chnl=0 letter="A"
char id=78 x=199 y=107 width=92 height=102 xoffset=-8 yoffset=-7 xadvance=76 page=0 chnl=0 letter="N"
char id=89 x=293 y=107 width=89 height=102 xoffset=-8 yoffset=-8 xadvance=72 page=0 chnl=0 letter="Y"
char id=83 x=384 y=107 width=88 height=102 xoffset=-8 yoffset=-7 xadvance=72 page=0 chnl=0 letter="S"
char id=66 x=474 y=107 width=86 height=102 xoffset=-8 yoffset=-7 xadvance=70 page=0 chnl=0 letter="B"
char id=80 x=562 y=107 width=85 height=102 xoffset=-8 yoffset=-7 xadvance=68 page=0 chnl=0 letter="P"
char id=85 x=649 y=107 width=85 height=102 xoffset=-8 yoffset=-7 xadvance=68 page=0 chnl=0 letter="U"
char id=82 x=736 y=107 width=84 height=102 xoffset=-8 yoffset=-7 xadvance=67 page=0 chnl=0 letter="R"
char id=69 x=822 y=107 width=83 height=102 xoffset=-8 yoffset=-7 xadvance=67 page=0 chnl=0 letter="E"
char id=70 x=907 y=107 width=83 height=102 xoffset=-8 yoffset=-7 xadvance=67 page=0 chnl=0 letter="F"
char id=53 x=2 y=211 width=83 height=102 xoffset=-9 yoffset=-7 xadvance=65 page=0 chnl=0 letter="5"
char id=67 x=87 y=211 width=81 height=102 xoffset=-8 yoffset=-7 xadvance=65 page=0 chnl=0 letter="C"
char id=54 x=170 y=211 width=75 height=102 xoffset=-9 yoffset=-7 xadvance=59 page=0 chnl=0 letter="6"
char id=50 x=247 y=211 width=75 height=102 xoffset=-9 yoffset=-7 xadvance=58 page=0 chnl=0 letter="2"
char id=56 x=324 y=211 width=74 height=102 xoffset=-8 yoffset=-7 xadvance=58 page=0 chnl=0 letter="8"
char id=84 x=400 y=211 width=74 height=102 xoffset=-8 yoffset=-7 xadvance=59 page=0 chnl=0 letter="T"
char id=76 x=476 y=211 width=70 height=102 xoffset=-8 yoffset=-7 xadvance=53 page=0 chnl=0 letter="L"
char id=63 x=548 y=211 width=70 height=102 xoffset=-8 yoffset=-7 xadvance=54 page=0 chnl=0 letter="?"
char id=74 x=620 y=211 width=58 height=102 xoffset=-8 yoffset=-7 xadvance=41 page=0 chnl=0 letter="J"
char id=49 x=680 y=211 width=52 height=102 xoffset=-8 yoffset=-7 xadvance=37 page=0 chnl=0 letter="1"
char id=73 x=734 y=211 width=47 height=102 xoffset=-8 yoffset=-7 xadvance=31 page=0 chnl=0 letter="I"
char id=77 x=783 y=211 width=117 height=101 xoffset=-8 yoffset=-6 xadvance=101 page=0 chnl=0 letter="M"
char id=88 x=902 y=211 width=102 height=101 xoffset=-8 yoffset=-6 xadvance=86 page=0 chnl=0 letter="X"
char id=90 x=2 y=315 width=94 height=101 xoffset=-8 yoffset=-6 xadvance=78 page=0 chnl=0 letter="Z"
char id=75 x=98 y=315 width=93 height=101 xoffset=-8 yoffset=-6 xadvance=77 page=0 chnl=0 letter="K"
char id=52 x=193 y=315 width=88 height=101 xoffset=-8 yoffset=-6 xadvance=72 page=0 chnl=0 letter="4"
char id=33 x=283 y=315 width=42 height=101 xoffset=-8 yoffset=-6 xadvance=27 page=0 chnl=0 letter="!"
char id=46 x=327 y=315 width=42 height=45 xoffset=-8 yoffset=50 xadvance=27 page=0 chnl=0 letter="."
char id=32 x=371 y=315 width=0 height=0 xoffset=0 yoffset=205 xadvance=21 page=0 chnl=0 letter="space"
